<?xml version="1.0" encoding="iso-8859-1"?>
<!-- Generator: Adobe Illustrator 16.0.0, SVG Export Plug-In . SVG Version: 6.00 Build 0)  -->
<!DOCTYPE svg PUBLIC "-//W3C//DTD SVG 1.1//EN" "http://www.w3.org/Graphics/SVG/1.1/DTD/svg11.dtd">
<svg version="1.1" id="Capa_1" xmlns="http://www.w3.org/2000/svg" xmlns:xlink="http://www.w3.org/1999/xlink" x="0px" y="0px"
	 width="519.709px" height="519.709px" viewBox="0 0 519.709 519.709" style="enable-background:new 0 0 519.709 519.709;"
	 xml:space="preserve">
<g>
	<g>
		<path d="M280.536,103.341c27.798-9.897,42.075-40.478,32.255-67.98C302.778,7.659,272.36-6.857,244.601,3.184
			c-27.76,9.764-41.979,40.44-32.216,68.181C222.32,98.837,252.853,113.334,280.536,103.341z"/>
		<path d="M64.156,296.542c1.349,2.678,2.133,4.935,3.663,6.675c2.353,4.408,5.374,8.435,8.817,11.915
			c0.841,0.688,1.625,1.166,2.467,1.864l45.489,55.281l-43.71,96.734c-7.602,16.734-0.201,36.404,16.772,44.035
			c16.629,7.621,36.414,0.201,43.873-16.629l52.364-115.42c0.698-1.74,0.641-3.261,1.119-4.857c0.736-2.4,1.501-4.6,1.587-6.962
			c0.019-2.228-0.287-4.274-0.612-6.426c-0.306-2.046-0.412-4.255-1.109-6.178c-0.803-2.257-2.19-4.235-3.299-6.406
			c20.607,8.281,40.182,16.495,49.629,20.378c6.034,25.761,28.832,123.69,28.879,123.9c4.446,17.614,21.897,28.468,39.827,24.413
			c17.854-4.398,29.07-22.165,25.016-40.076l-32.742-140.119c-2.457-10.528-9.648-19.201-19.822-23.323l-89.964-37.169l78.891-81.09
			l123.174,82.745c11.887,8.166,28.019,5.001,36.089-7.066c8.128-12.068,4.849-28.191-7.057-36.108L240.565,114.348
			c-14.449-9.658-36.137-7.525-48.434,4.762L76.109,235.122c-13.665,13.933-18.819,33.287-15.214,51.083
			C61.345,289.791,62.454,293.301,64.156,296.542z"/>
		<circle cx="413.12" cy="377.106" r="46.809"/>
	</g>
</g>
<g>
</g>
<g>
</g>
<g>
</g>
<g>
</g>
<g>
</g>
<g>
</g>
<g>
</g>
<g>
</g>
<g>
</g>
<g>
</g>
<g>
</g>
<g>
</g>
<g>
</g>
<g>
</g>
<g>
</g>
</svg>
