<?xml version="1.0" encoding="iso-8859-1"?>
<!-- Generator: Adobe Illustrator 16.0.0, SVG Export Plug-In . SVG Version: 6.00 Build 0)  -->
<!DOCTYPE svg PUBLIC "-//W3C//DTD SVG 1.1//EN" "http://www.w3.org/Graphics/SVG/1.1/DTD/svg11.dtd">
<svg version="1.1" id="Capa_1" xmlns="http://www.w3.org/2000/svg" xmlns:xlink="http://www.w3.org/1999/xlink" x="0px" y="0px"
	 width="535.88px" height="535.88px" viewBox="0 0 535.88 535.88" style="enable-background:new 0 0 535.88 535.88;"
	 xml:space="preserve">
<g>
	<g>
		<path d="M171.033,114.14c19.852-3.873,32.742-23.151,28.869-43.002c-3.873-19.852-23.046-32.751-42.897-28.879
			c-19.842,3.873-32.866,23.055-28.984,42.907C131.894,105.018,151.201,118.013,171.033,114.14z"/>
		<path d="M505.214,346.433c-5.805-10.892-15.176-10.863-20.923,0.058l-7.114,13.521c-5.757,10.92-20.416,19.775-32.752,19.775
			h-16.763c-12.346,0-29.644,6.847-38.643,15.28l-32.445,30.438c-3.806,3.567-9.027,6.178-14.621,7.765
			c0.765-1.635,1.1-3.471,0.698-5.297L291.09,92.959l-0.22-0.631c-1.491-4.284-6.263-6.684-10.662-5.145
			c-3.959,1.377-5.929,5.527-5.422,9.696l15.902,103.16l-51.962-2.773l-26.641-57.241c-4.485-9.639-16.715-17.012-27.33-16.486
			l-33.689,3.05c-3.021,0.153-5.862,1.052-8.443,2.419c-7.306-0.937-15.721,2.142-22.396,5.527
			c-0.144-0.296-0.306-0.564-0.459-0.851c4.246-5.9,6.206-13.426,4.705-21.114c-2.878-14.745-17.212-24.403-31.958-21.516
			C77.77,93.935,68.122,108.269,71,123.014c1.147,5.891,4.179,10.901,8.271,14.697c-2.085,3.223-3.146,6.78-2.353,10.29
			c3.395,15.013,7.143,35.257,5.326,45.575c-3.079,17.652-15.692,61.21,7.449,61.821c13.206,0.354,27.387-2.858,37.141-5.689
			l-7.774,182.903c0.029,1.807,0.249,3.509,0.583,5.192c0.411,2.123,1.147,4.093,2.018,5.967l-11.771,9.668
			c-9.543,7.822-26.67,10.729-38.25,6.483L40.83,448.617c-11.58-4.245-25.608,1.167-31.336,12.097l-7.201,13.799
			c-5.728,10.939-0.354,19.795,11.982,19.795h486.004c12.336,0,24.309-9.812,26.728-21.908l7.994-39.98
			c2.419-12.097-0.325-30.734-6.139-41.626L505.214,346.433z M101.418,136.688c-6.235,1.214-12.335-0.784-16.687-4.781
			c-0.22-0.22-0.488-0.402-0.708-0.622c-0.115-0.115-0.201-0.249-0.296-0.354c-0.842-0.946-1.616-1.941-2.276-3.041
			c-2.391-3.978-2.993-8.683-1.721-13.254c1.271-4.513,4.236-8.367,8.367-10.844c3.385-2.037,7.354-2.706,11.14-1.865
			c3.834,0.851,7.038,3.127,9.008,6.426c1.645,2.744,2.065,5.996,1.195,9.151c-0.87,3.117-2.907,5.766-5.737,7.458
			c-4.935,2.945-11.255,1.511-14.085-3.213c-2.41-4.016-0.976-9.324,3.203-11.829c3.567-2.161,8.157-1.081,10.213,2.362
			c1.788,2.974,0.727,6.904-2.353,8.75c-0.144,0.086-0.287,0.163-0.43,0.239c-0.239,0.115-0.096,0.105,0.296-0.067
			c0.229-0.105,0.459-0.22,0.688-0.354c1.769-1.062,3.041-2.706,3.577-4.619c0.526-1.875,0.277-3.787-0.679-5.403
			c-1.291-2.142-3.395-3.644-5.929-4.198c-2.582-0.573-5.288-0.114-7.631,1.291c-3.06,1.836-5.259,4.686-6.196,8.023
			c-0.918,3.28-0.488,6.646,1.214,9.486c2.209,3.681,5.804,6.234,10.136,7.191c4.379,0.995,8.96,0.201,12.928-2.18
			c3.223-1.922,5.718-4.542,7.564-7.468C114.289,129.727,108.791,135.245,101.418,136.688z M123.173,143.535
			c-0.077-0.468-0.268-0.86-0.363-1.32c3.461-1.807,7.334-3.519,11.016-4.523c-1.52,2.764-2.496,5.824-2.61,9.084l-1.625,38.154
			L123.173,143.535z M191.487,433.576l-19.221-6.694c-0.43-0.152-0.918-0.22-1.367-0.354l5.9-139.832l68.955,132.87
			c1.616,3.529,4.036,6.513,6.923,8.903l-18.743,5.823C222.135,437.955,203.144,437.631,191.487,433.576z M302.422,427.131
			c-3.748-1.358-8.291-2.267-13.082-2.831c4.342-5.651,6.389-13.005,4.916-20.588c-0.373-1.912-0.957-3.652-1.646-5.44
			l-86.225-169.458l0.688-21.869l6.971,15.749c5.46,10.05,15.462,9.228,15.462,9.228l61.41,3.414
			c1.233-0.01,2.391-0.115,3.558-0.345c0.535-0.104,1.023-0.315,1.539-0.459l30.428,197.39c0.067,0.21,0.039,0.459,0.077,0.563
			c0.315,0.909,0.842,1.664,1.405,2.382c-3.041-0.191-5.995-0.698-8.654-1.664L302.422,427.131z"/>
	</g>
</g>
<g>
</g>
<g>
</g>
<g>
</g>
<g>
</g>
<g>
</g>
<g>
</g>
<g>
</g>
<g>
</g>
<g>
</g>
<g>
</g>
<g>
</g>
<g>
</g>
<g>
</g>
<g>
</g>
<g>
</g>
</svg>
